%YAML 1.1
%TAG !u! tag:unity3d.com,2011:
--- !u!1 &2279522777834172627
GameObject:
  m_ObjectHideFlags: 0
  m_CorrespondingSourceObject: {fileID: 0}
  m_PrefabInstance: {fileID: 0}
  m_PrefabAsset: {fileID: 0}
  serializedVersion: 6
  m_Component:
  - component: {fileID: 1506926105356397161}
  - component: {fileID: 2541849719622657484}
  - component: {fileID: 333971793433334022}
  - component: {fileID: 1396982516312345985}
  m_Layer: 0
  m_Name: TVSetMegaphone
  m_TagString: Untagged
  m_Icon: {fileID: 0}
  m_NavMeshLayer: 0
  m_StaticEditorFlags: 16
  m_IsActive: 1
--- !u!4 &1506926105356397161
Transform:
  m_ObjectHideFlags: 0
  m_CorrespondingSourceObject: {fileID: 0}
  m_PrefabInstance: {fileID: 0}
  m_PrefabAsset: {fileID: 0}
  m_GameObject: {fileID: 2279522777834172627}
  m_LocalRotation: {x: 0, y: 0, z: 0, w: 1}
  m_LocalPosition: {x: -0.543, y: 0.269, z: 0.464}
  m_LocalScale: {x: 1, y: 1, z: 1}
  m_ConstrainProportionsScale: 0
  m_Children:
  - {fileID: 400992258104695341}
  m_Father: {fileID: 0}
  m_RootOrder: 0
  m_LocalEulerAnglesHint: {x: 0, y: 0, z: 0}
--- !u!33 &2541849719622657484
MeshFilter:
  m_ObjectHideFlags: 0
  m_CorrespondingSourceObject: {fileID: 0}
  m_PrefabInstance: {fileID: 0}
  m_PrefabAsset: {fileID: 0}
  m_GameObject: {fileID: 2279522777834172627}
  m_Mesh: {fileID: 6375307619452747168, guid: 0a075a421b69b90479949c735d08d280, type: 3}
--- !u!23 &333971793433334022
MeshRenderer:
  m_ObjectHideFlags: 0
  m_CorrespondingSourceObject: {fileID: 0}
  m_PrefabInstance: {fileID: 0}
  m_PrefabAsset: {fileID: 0}
  m_GameObject: {fileID: 2279522777834172627}
  m_Enabled: 1
  m_CastShadows: 1
  m_ReceiveShadows: 1
  m_DynamicOccludee: 1
  m_StaticShadowCaster: 0
  m_MotionVectors: 1
  m_LightProbeUsage: 1
  m_ReflectionProbeUsage: 1
  m_RayTracingMode: 2
  m_RayTraceProcedural: 0
  m_RenderingLayerMask: 1
  m_RendererPriority: 0
  m_Materials:
  - {fileID: 2100000, guid: e6ceb358c2b5f7e4abb55ae2ed9d9dc4, type: 2}
  m_StaticBatchInfo:
    firstSubMesh: 0
    subMeshCount: 0
  m_StaticBatchRoot: {fileID: 0}
  m_ProbeAnchor: {fileID: 0}
  m_LightProbeVolumeOverride: {fileID: 0}
  m_ScaleInLightmap: 1
  m_ReceiveGI: 1
  m_PreserveUVs: 0
  m_IgnoreNormalsForChartDetection: 0
  m_ImportantGI: 0
  m_StitchLightmapSeams: 1
  m_SelectedEditorRenderState: 3
  m_MinimumChartSize: 4
  m_AutoUVMaxDistance: 0.5
  m_AutoUVMaxAngle: 89
  m_LightmapParameters: {fileID: 0}
  m_SortingLayerID: 0
  m_SortingLayer: 0
  m_SortingOrder: 0
  m_AdditionalVertexStreams: {fileID: 0}
--- !u!65 &1396982516312345985
BoxCollider:
  m_ObjectHideFlags: 0
  m_CorrespondingSourceObject: {fileID: 0}
  m_PrefabInstance: {fileID: 0}
  m_PrefabAsset: {fileID: 0}
  m_GameObject: {fileID: 2279522777834172627}
  m_Material: {fileID: 0}
  m_IsTrigger: 0
  m_Enabled: 1
  serializedVersion: 2
  m_Size: {x: 0.6, y: 0.55, z: 0.45}
  m_Center: {x: 0, y: 0, z: 0}
--- !u!1001 &1396982514766998595
PrefabInstance:
  m_ObjectHideFlags: 0
  serializedVersion: 2
  m_Modification:
    m_TransformParent: {fileID: 1506926105356397161}
    m_Modifications:
    - target: {fileID: 1653815466690180718, guid: 24b1bf3f17a7f25499f7885389889ff1, type: 3}
      propertyPath: m_RootOrder
      value: 0
      objectReference: {fileID: 0}
    - target: {fileID: 1653815466690180718, guid: 24b1bf3f17a7f25499f7885389889ff1, type: 3}
      propertyPath: m_LocalScale.x
      value: 1
      objectReference: {fileID: 0}
    - target: {fileID: 1653815466690180718, guid: 24b1bf3f17a7f25499f7885389889ff1, type: 3}
      propertyPath: m_LocalScale.y
      value: 1
      objectReference: {fileID: 0}
    - target: {fileID: 1653815466690180718, guid: 24b1bf3f17a7f25499f7885389889ff1, type: 3}
      propertyPath: m_LocalScale.z
      value: 1
      objectReference: {fileID: 0}
    - target: {fileID: 1653815466690180718, guid: 24b1bf3f17a7f25499f7885389889ff1, type: 3}
      propertyPath: m_LocalPosition.x
      value: 0
      objectReference: {fileID: 0}
    - target: {fileID: 1653815466690180718, guid: 24b1bf3f17a7f25499f7885389889ff1, type: 3}
      propertyPath: m_LocalPosition.y
      value: 0
      objectReference: {fileID: 0}
    - target: {fileID: 1653815466690180718, guid: 24b1bf3f17a7f25499f7885389889ff1, type: 3}
      propertyPath: m_LocalPosition.z
      value: 0
      objectReference: {fileID: 0}
    - target: {fileID: 1653815466690180718, guid: 24b1bf3f17a7f25499f7885389889ff1, type: 3}
      propertyPath: m_LocalRotation.w
      value: 1
      objectReference: {fileID: 0}
    - target: {fileID: 1653815466690180718, guid: 24b1bf3f17a7f25499f7885389889ff1, type: 3}
      propertyPath: m_LocalRotation.x
      value: -0
      objectReference: {fileID: 0}
    - target: {fileID: 1653815466690180718, guid: 24b1bf3f17a7f25499f7885389889ff1, type: 3}
      propertyPath: m_LocalRotation.y
      value: -0
      objectReference: {fileID: 0}
    - target: {fileID: 1653815466690180718, guid: 24b1bf3f17a7f25499f7885389889ff1, type: 3}
      propertyPath: m_LocalRotation.z
      value: -0
      objectReference: {fileID: 0}
    - target: {fileID: 1653815466690180718, guid: 24b1bf3f17a7f25499f7885389889ff1, type: 3}
      propertyPath: m_LocalEulerAnglesHint.x
      value: 0
      objectReference: {fileID: 0}
    - target: {fileID: 1653815466690180718, guid: 24b1bf3f17a7f25499f7885389889ff1, type: 3}
      propertyPath: m_LocalEulerAnglesHint.y
      value: 0
      objectReference: {fileID: 0}
    - target: {fileID: 1653815466690180718, guid: 24b1bf3f17a7f25499f7885389889ff1, type: 3}
      propertyPath: m_LocalEulerAnglesHint.z
      value: 0
      objectReference: {fileID: 0}
    - target: {fileID: 6548170028544116065, guid: 24b1bf3f17a7f25499f7885389889ff1, type: 3}
      propertyPath: m_Name
      value: DialogueGameObject
      objectReference: {fileID: 0}
    - target: {fileID: 6548170028544116065, guid: 24b1bf3f17a7f25499f7885389889ff1, type: 3}
      propertyPath: m_StaticEditorFlags
      value: 16
      objectReference: {fileID: 0}
    m_RemovedComponents: []
  m_SourcePrefab: {fileID: 100100000, guid: 24b1bf3f17a7f25499f7885389889ff1, type: 3}
--- !u!4 &400992258104695341 stripped
Transform:
  m_CorrespondingSourceObject: {fileID: 1653815466690180718, guid: 24b1bf3f17a7f25499f7885389889ff1, type: 3}
  m_PrefabInstance: {fileID: 1396982514766998595}
  m_PrefabAsset: {fileID: 0}
