%YAML 1.1
%TAG !u! tag:unity3d.com,2011:
--- !u!1001 &8348555900617549921
PrefabInstance:
  m_ObjectHideFlags: 0
  serializedVersion: 2
  m_Modification:
    m_TransformParent: {fileID: 0}
    m_Modifications:
    - target: {fileID: 3680123673304336497, guid: c8c2b1b8fe3ecfa419c0339c59963be8, type: 3}
      propertyPath: m_LocalScale.x
      value: 0.0005
      objectReference: {fileID: 0}
    - target: {fileID: 3680123673585333166, guid: c8c2b1b8fe3ecfa419c0339c59963be8, type: 3}
      propertyPath: m_LocalScale.x
      value: 0.0015
      objectReference: {fileID: 0}
    - target: {fileID: 3680123674894007858, guid: c8c2b1b8fe3ecfa419c0339c59963be8, type: 3}
      propertyPath: m_RootOrder
      value: 0
      objectReference: {fileID: 0}
    - target: {fileID: 3680123674894007858, guid: c8c2b1b8fe3ecfa419c0339c59963be8, type: 3}
      propertyPath: m_LocalPosition.x
      value: 9.0276
      objectReference: {fileID: 0}
    - target: {fileID: 3680123674894007858, guid: c8c2b1b8fe3ecfa419c0339c59963be8, type: 3}
      propertyPath: m_LocalPosition.y
      value: 0.556
      objectReference: {fileID: 0}
    - target: {fileID: 3680123674894007858, guid: c8c2b1b8fe3ecfa419c0339c59963be8, type: 3}
      propertyPath: m_LocalPosition.z
      value: 38.084
      objectReference: {fileID: 0}
    - target: {fileID: 3680123674894007858, guid: c8c2b1b8fe3ecfa419c0339c59963be8, type: 3}
      propertyPath: m_LocalRotation.w
      value: 1
      objectReference: {fileID: 0}
    - target: {fileID: 3680123674894007858, guid: c8c2b1b8fe3ecfa419c0339c59963be8, type: 3}
      propertyPath: m_LocalRotation.x
      value: 0
      objectReference: {fileID: 0}
    - target: {fileID: 3680123674894007858, guid: c8c2b1b8fe3ecfa419c0339c59963be8, type: 3}
      propertyPath: m_LocalRotation.y
      value: 0
      objectReference: {fileID: 0}
    - target: {fileID: 3680123674894007858, guid: c8c2b1b8fe3ecfa419c0339c59963be8, type: 3}
      propertyPath: m_LocalRotation.z
      value: 0
      objectReference: {fileID: 0}
    - target: {fileID: 3680123674894007858, guid: c8c2b1b8fe3ecfa419c0339c59963be8, type: 3}
      propertyPath: m_LocalEulerAnglesHint.x
      value: 0
      objectReference: {fileID: 0}
    - target: {fileID: 3680123674894007858, guid: c8c2b1b8fe3ecfa419c0339c59963be8, type: 3}
      propertyPath: m_LocalEulerAnglesHint.y
      value: 0
      objectReference: {fileID: 0}
    - target: {fileID: 3680123674894007858, guid: c8c2b1b8fe3ecfa419c0339c59963be8, type: 3}
      propertyPath: m_LocalEulerAnglesHint.z
      value: 0
      objectReference: {fileID: 0}
    - target: {fileID: 3680123674894007859, guid: c8c2b1b8fe3ecfa419c0339c59963be8, type: 3}
      propertyPath: m_Name
      value: BarCode6
      objectReference: {fileID: 0}
    m_RemovedComponents: []
  m_SourcePrefab: {fileID: 100100000, guid: c8c2b1b8fe3ecfa419c0339c59963be8, type: 3}
